
; Created with PaperSlicer.py
; A script by Jens Welsch

; Parameters: Namespace(input='examples/BadApple.png', output='examples/BadApple.gcode', mode='horizontal', speed=75.0, acceleration=1000, overwrite=True, start_coordinates=[25.0, 18.0], dimensions=[238.0, 180.0], resolution=2, pen_offset=[10.0, 30.0, 3.0], lift=2.5, custom_start='ressources/start.gcode', custom_end='ressources/end.gcode', custom_next_page='none')
; Sliced 2024-03-28 22:45:29

M73 P0 R6 ; Reset Print Progress and set remaining time
M204 P1000 T1000 ; Set acceleration
G0 F4500.0 ; Set movement speed
G1 F4500.0 ; Set movement speed

M107    ; disable fan
M104 S0 ; Turn off the extruder heater
M140 S0 ; Turn off the bed heater
G90     ; use absolute coordinates
G28 W   ; home all without mesh bed level
BED_MESH_CALIBRATE  ; probe the bed and enable mesh bed leveling
G0 X10 Y30 Z3
G4 P30000 ; To insert Pen

G1 Z5.5
G0 X129.5 Y48.0 Z5.5
G1 Z3.0
G1 X186.0 Y48.0
G1 Z5.5
G0 X186.0 Y48.5 Z5.5
G1 Z3.0
G1 X130.0 Y48.5
G1 Z5.5
G0 X130.0 Y49.0 Z5.5
G1 Z3.0
G1 X185.5 Y49.0
G1 Z5.5
G0 X185.0 Y49.5 Z5.5
G1 Z3.0
G1 X130.5 Y49.5
G1 Z5.5
G0 X130.5 Y50.0 Z5.5
G1 Z3.0
G1 X185.0 Y50.0
G1 Z5.5
G0 X184.5 Y50.5 Z5.5
G1 Z3.0
G1 X131.0 Y50.5
G1 Z5.5
G0 X131.0 Y51.0 Z5.5
G1 Z3.0
G1 X184.5 Y51.0
G1 Z5.5
G0 X184.0 Y51.5 Z5.5
G1 Z3.0
G1 X131.0 Y51.5
G1 Z5.5
G0 X131.5 Y52.0 Z5.5
G1 Z3.0
G1 X184.0 Y52.0
G1 Z5.5
G0 X183.5 Y52.5 Z5.5
G1 Z3.0
G1 X131.5 Y52.5
G1 Z5.5
G0 X132.0 Y53.0 Z5.5
G1 Z3.0
G1 X183.5 Y53.0
G1 Z5.5
G0 X183.0 Y53.5 Z5.5
G1 Z3.0
G1 X132.0 Y53.5
G1 Z5.5
G0 X132.5 Y54.0 Z5.5
G1 Z3.0
G1 X183.0 Y54.0
G1 Z5.5
G0 X182.5 Y54.5 Z5.5
G1 Z3.0
G1 X132.5 Y54.5
G1 Z5.5
G0 X133.0 Y55.0 Z5.5
G1 Z3.0
G1 X182.0 Y55.0
G1 Z5.5
G0 X182.0 Y55.5 Z5.5
G1 Z3.0
G1 X133.0 Y55.5
G1 Z5.5
G0 X133.0 Y56.0 Z5.5
G1 Z3.0
G1 X181.5 Y56.0
G1 Z5.5
G0 X181.5 Y56.5 Z5.5
G1 Z3.0
G1 X133.0 Y56.5
G1 Z5.5
G0 X132.5 Y57.0 Z5.5
G1 Z3.0
G1 X181.0 Y57.0
G1 Z5.5
G0 X181.0 Y57.5 Z5.5
G1 Z3.0
G1 X132.5 Y57.5
G1 Z5.5
G0 X132.0 Y58.0 Z5.5
G1 Z3.0
G1 X180.5 Y58.0
G1 Z5.5
G0 X180.5 Y58.5 Z5.5
G1 Z3.0
G1 X131.5 Y58.5
G1 Z5.5
G0 X131.5 Y59.0 Z5.5
G1 Z3.0
G1 X180.5 Y59.0
G1 Z5.5
G0 X180.5 Y59.5 Z5.5
G1 Z3.0
G1 X131.5 Y59.5
G1 Z5.5
G0 X132.0 Y60.0 Z5.5
G1 Z3.0
G1 X181.0 Y60.0
G1 Z5.5
G0 X181.0 Y60.5 Z5.5
G1 Z3.0
G1 X132.0 Y60.5
G1 Z5.5
G0 X132.0 Y61.0 Z5.5
G1 Z3.0
G1 X181.5 Y61.0
G1 Z5.5
G0 X181.5 Y61.5 Z5.5
G1 Z3.0
G1 X132.0 Y61.5
G1 Z5.5
G0 X132.0 Y62.0 Z5.5
G1 Z3.0
G1 X182.0 Y62.0
G1 Z5.5
G0 X182.0 Y62.5 Z5.5
G1 Z3.0
G1 X132.0 Y62.5
G1 Z5.5
G0 X132.0 Y63.0 Z5.5
G1 Z3.0
G1 X182.5 Y63.0
G1 Z5.5
G0 X182.5 Y63.5 Z5.5
G1 Z3.0
G1 X132.0 Y63.5
G1 Z5.5
G0 X131.5 Y64.0 Z5.5
G1 Z3.0
G1 X182.5 Y64.0
G1 Z5.5
G0 X183.0 Y64.5 Z5.5
G1 Z3.0
G1 X131.5 Y64.5
G1 Z5.5
G0 X131.0 Y65.0 Z5.5
G1 Z3.0
G1 X183.0 Y65.0
G1 Z5.5
G0 X182.5 Y65.5 Z5.5
G1 Z3.0
G1 X130.5 Y65.5
G1 Z5.5
G0 X130.5 Y66.0 Z5.5
G1 Z3.0
G1 X182.5 Y66.0
G1 Z5.5
G0 X182.0 Y66.5 Z5.5
G1 Z3.0
G1 X130.5 Y66.5
G1 Z5.5
G0 X131.0 Y67.0 Z5.5
G1 Z3.0
G1 X181.5 Y67.0
G1 Z5.5
G0 X181.0 Y67.5 Z5.5
G1 Z3.0
G1 X131.5 Y67.5
G1 Z5.5
G0 X132.5 Y68.0 Z5.5
G1 Z3.0
G1 X180.0 Y68.0
G1 Z5.5
G0 X179.5 Y68.5 Z5.5
G1 Z3.0
G1 X134.0 Y68.5
G1 Z5.5
G0 X134.5 Y69.0 Z5.5
G1 Z3.0
G1 X179.0 Y69.0
G1 Z5.5
G0 X178.5 Y69.5 Z5.5
G1 Z3.0
G1 X134.5 Y69.5
G1 Z5.5
G0 X134.5 Y70.0 Z5.5
G1 Z3.0
G1 X178.0 Y70.0
G1 Z5.5
G0 X177.5 Y70.5 Z5.5
G1 Z3.0
G1 X135.0 Y70.5
G1 Z5.5
G0 X135.0 Y71.0 Z5.5
G1 Z3.0
G1 X177.5 Y71.0
G1 Z5.5
G0 X177.5 Y71.5 Z5.5
G1 Z3.0
G1 X135.0 Y71.5
G1 Z5.5
G0 X135.0 Y72.0 Z5.5
G1 Z3.0
G1 X177.0 Y72.0
G1 Z5.5
G0 X177.0 Y72.5 Z5.5
G1 Z3.0
G1 X134.5 Y72.5
G1 Z5.5
G0 X134.5 Y73.0 Z5.5
G1 Z3.0
G1 X177.0 Y73.0
G1 Z5.5
G0 X177.0 Y73.5 Z5.5
G1 Z3.0
G1 X134.5 Y73.5
G1 Z5.5
G0 X134.5 Y74.0 Z5.5
G1 Z3.0
G1 X177.0 Y74.0
G1 Z5.5
G0 X176.5 Y74.5 Z5.5
G1 Z3.0
G1 X134.5 Y74.5
G1 Z5.5
G0 X134.5 Y75.0 Z5.5
G1 Z3.0
G1 X176.5 Y75.0
G1 Z5.5
G0 X176.5 Y75.5 Z5.5
G1 Z3.0
G1 X134.5 Y75.5
G1 Z5.5
G0 X134.5 Y76.0 Z5.5
G1 Z3.0
G1 X176.5 Y76.0
G1 Z5.5
G0 X176.0 Y76.5 Z5.5
G1 Z3.0
G1 X134.5 Y76.5
G1 Z5.5
G0 X134.5 Y77.0 Z5.5
G1 Z3.0
G1 X176.0 Y77.0
G1 Z5.5
G0 X181.0 Y77.5 Z5.5
G1 Z3.0
G1 X134.5 Y77.5
G1 Z5.5
G0 X130.0 Y78.0 Z5.5
G1 Z3.0
G1 X131.5 Y78.0
G1 Z5.5
G0 X182.5 Y78.0 Z5.5
G1 Z3.0
G1 X134.5 Y78.0
G1 Z5.5
G0 X128.0 Y78.5 Z5.5
G1 Z3.0
G1 X133.0 Y78.5
G1 Z5.5
G0 X183.5 Y78.5 Z5.5
G1 Z3.0
G1 X134.5 Y78.5
G1 Z5.5
G0 X127.0 Y79.0 Z5.5
G1 Z3.0
G1 X184.0 Y79.0
G1 Z5.5
G0 X184.5 Y79.5 Z5.5
G1 Z3.0
G1 X126.0 Y79.5
G1 Z5.5
G0 X125.5 Y80.0 Z5.5
G1 Z3.0
G1 X185.0 Y80.0
G1 Z5.5
G0 X185.5 Y80.5 Z5.5
G1 Z3.0
G1 X125.0 Y80.5
G1 Z5.5
G0 X124.5 Y81.0 Z5.5
G1 Z3.0
G1 X185.5 Y81.0
G1 Z5.5
G0 X186.0 Y81.5 Z5.5
G1 Z3.0
G1 X124.0 Y81.5
G1 Z5.5
G0 X124.0 Y82.0 Z5.5
G1 Z3.0
G1 X186.0 Y82.0
G1 Z5.5
G0 X186.0 Y82.5 Z5.5
G1 Z3.0
G1 X123.5 Y82.5
G1 Z5.5
G0 X123.5 Y83.0 Z5.5
G1 Z3.0
G1 X185.5 Y83.0
G1 Z5.5
G0 X185.5 Y83.5 Z5.5
G1 Z3.0
G1 X123.5 Y83.5
G1 Z5.5
G0 X123.5 Y84.0 Z5.5
G1 Z3.0
G1 X185.5 Y84.0
G1 Z5.5
G0 X186.0 Y84.5 Z5.5
G1 Z3.0
G1 X123.5 Y84.5
G1 Z5.5
G0 X123.5 Y85.0 Z5.5
G1 Z3.0
G1 X186.0 Y85.0
G1 Z5.5
G0 X185.5 Y85.5 Z5.5
G1 Z3.0
G1 X123.5 Y85.5
G1 Z5.5
G0 X123.5 Y86.0 Z5.5
G1 Z3.0
G1 X185.5 Y86.0
G1 Z5.5
G0 X185.5 Y86.5 Z5.5
G1 Z3.0
G1 X123.5 Y86.5
G1 Z5.5
G0 X123.5 Y87.0 Z5.5
G1 Z3.0
G1 X185.5 Y87.0
G1 Z5.5
G0 X185.5 Y87.5 Z5.5
G1 Z3.0
G1 X124.0 Y87.5
G1 Z5.5
G0 X124.0 Y88.0 Z5.5
G1 Z3.0
G1 X185.5 Y88.0
G1 Z5.5
G0 X185.5 Y88.5 Z5.5
G1 Z3.0
G1 X124.0 Y88.5
G1 Z5.5
G0 X124.0 Y89.0 Z5.5
G1 Z3.0
G1 X185.5 Y89.0
G1 Z5.5
G0 X185.5 Y89.5 Z5.5
G1 Z3.0
G1 X124.0 Y89.5
G1 Z5.5
G0 X124.0 Y90.0 Z5.5
G1 Z3.0
G1 X185.0 Y90.0
G1 Z5.5
G0 X185.0 Y90.5 Z5.5
G1 Z3.0
G1 X124.0 Y90.5
G1 Z5.5
G0 X124.5 Y91.0 Z5.5
G1 Z3.0
G1 X185.0 Y91.0
G1 Z5.5
G0 X185.0 Y91.5 Z5.5
G1 Z3.0
G1 X124.5 Y91.5
G1 Z5.5
G0 X124.5 Y92.0 Z5.5
G1 Z3.0
G1 X185.0 Y92.0
G1 Z5.5
G0 X261.0 Y92.0 Z5.5
G1 Z3.0
G1 X259.5 Y92.0
G1 Z5.5
G0 X124.5 Y92.5 Z5.5
G1 Z3.0
G1 X185.0 Y92.5
G1 Z5.5
G0 X263.0 Y92.5 Z5.5
G1 Z3.0
G1 X259.0 Y92.5
G1 Z5.5
G0 X124.5 Y93.0 Z5.5
G1 Z3.0
G1 X185.0 Y93.0
G1 Z5.5
G0 X264.5 Y93.0 Z5.5
G1 Z3.0
G1 X258.5 Y93.0
G1 Z5.5
G0 X124.5 Y93.5 Z5.5
G1 Z3.0
G1 X185.0 Y93.5
G1 Z5.5
G0 X266.0 Y93.5 Z5.5
G1 Z3.0
G1 X258.0 Y93.5
G1 Z5.5
G0 X124.5 Y94.0 Z5.5
G1 Z3.0
G1 X185.0 Y94.0
G1 Z5.5
G0 X268.0 Y94.0 Z5.5
G1 Z3.0
G1 X258.0 Y94.0
G1 Z5.5
G0 X104.0 Y94.5 Z5.5
G1 Z3.0
G1 X104.5 Y94.5
G1 Z5.5
G0 X185.0 Y94.5 Z5.5
G1 Z3.0
G1 X124.5 Y94.5
G1 Z5.5
G0 X257.5 Y94.5 Z5.5
G1 Z3.0
G1 X270.0 Y94.5
G1 Z5.5
G0 X105.5 Y95.0 Z5.5
G1 Z3.0
G1 X103.5 Y95.0
G1 Z5.5
G0 X124.5 Y95.0 Z5.5
G1 Z3.0
G1 X185.0 Y95.0
G1 Z5.5
G0 X272.5 Y95.0 Z5.5
G1 Z3.0
G1 X257.5 Y95.0
G1 Z5.5
G0 X102.5 Y95.5 Z5.5
G1 Z3.0
G1 X106.0 Y95.5
G1 Z5.5
G0 X185.0 Y95.5 Z5.5
G1 Z3.0
G1 X124.5 Y95.5
G1 Z5.5
G0 X257.0 Y95.5 Z5.5
G1 Z3.0
G1 X272.5 Y95.5
G1 Z5.5
G0 X107.0 Y96.0 Z5.5
G1 Z3.0
G1 X102.0 Y96.0
G1 Z5.5
G0 X124.5 Y96.0 Z5.5
G1 Z3.0
G1 X185.0 Y96.0
G1 Z5.5
G0 X208.0 Y96.0 Z5.5
G1 Z3.0
G1 X206.0 Y96.0
G1 Z5.5
G0 X228.5 Y96.0 Z5.5
G1 Z3.0
G1 X229.5 Y96.0
G1 Z5.5
G0 X272.5 Y96.0 Z5.5
G1 Z3.0
G1 X256.5 Y96.0
G1 Z5.5
G0 X102.0 Y96.5 Z5.5
G1 Z3.0
G1 X107.5 Y96.5
G1 Z5.5
G0 X185.0 Y96.5 Z5.5
G1 Z3.0
G1 X124.5 Y96.5
G1 Z5.5
G0 X205.5 Y96.5 Z5.5
G1 Z3.0
G1 X209.0 Y96.5
G1 Z5.5
G0 X229.5 Y96.5 Z5.5
G1 Z3.0
G1 X228.0 Y96.5
G1 Z5.5
G0 X256.5 Y96.5 Z5.5
G1 Z3.0
G1 X272.5 Y96.5
G1 Z5.5
G0 X108.0 Y97.0 Z5.5
G1 Z3.0
G1 X101.5 Y97.0
G1 Z5.5
G0 X124.5 Y97.0 Z5.5
G1 Z3.0
G1 X185.0 Y97.0
G1 Z5.5
G0 X209.5 Y97.0 Z5.5
G1 Z3.0
G1 X204.5 Y97.0
G1 Z5.5
G0 X227.0 Y97.0 Z5.5
G1 Z3.0
G1 X230.0 Y97.0
G1 Z5.5
G0 X272.5 Y97.0 Z5.5
G1 Z3.0
G1 X256.5 Y97.0
G1 Z5.5
G0 X101.0 Y97.5 Z5.5
G1 Z3.0
G1 X109.0 Y97.5
G1 Z5.5
G0 X185.0 Y97.5 Z5.5
G1 Z3.0
G1 X125.0 Y97.5
G1 Z5.5
G0 X204.0 Y97.5 Z5.5
G1 Z3.0
G1 X210.0 Y97.5
G1 Z5.5
G0 X230.0 Y97.5 Z5.5
G1 Z3.0
G1 X226.5 Y97.5
G1 Z5.5
G0 X256.0 Y97.5 Z5.5
G1 Z3.0
G1 X272.5 Y97.5
G1 Z5.5
G0 X109.5 Y98.0 Z5.5
G1 Z3.0
G1 X100.5 Y98.0
G1 Z5.5
G0 X125.0 Y98.0 Z5.5
G1 Z3.0
G1 X185.0 Y98.0
G1 Z5.5
G0 X210.5 Y98.0 Z5.5
G1 Z3.0
G1 X203.0 Y98.0
G1 Z5.5
G0 X226.0 Y98.0 Z5.5
G1 Z3.0
G1 X230.5 Y98.0
G1 Z5.5
G0 X244.0 Y98.0 Z5.5
G1 Z3.0
G1 X244.0 Y98.0
G1 Z5.5
G0 X255.5 Y98.0 Z5.5
G1 Z3.0
G1 X272.5 Y98.0
G1 Z5.5
G0 X110.5 Y98.5 Z5.5
G1 Z3.0
G1 X100.0 Y98.5
G1 Z5.5
G0 X125.0 Y98.5 Z5.5
G1 Z3.0
G1 X185.0 Y98.5
G1 Z5.5
G0 X211.5 Y98.5 Z5.5
G1 Z3.0
G1 X202.5 Y98.5
G1 Z5.5
G0 X225.0 Y98.5 Z5.5
G1 Z3.0
G1 X230.5 Y98.5
G1 Z5.5
G0 X244.0 Y98.5 Z5.5
G1 Z3.0
G1 X243.5 Y98.5
G1 Z5.5
G0 X255.5 Y98.5 Z5.5
G1 Z3.0
G1 X272.5 Y98.5
G1 Z5.5
G0 X50.5 Y99.0 Z5.5
G1 Z3.0
G1 X48.0 Y99.0
G1 Z5.5
G0 X80.5 Y99.0 Z5.5
G1 Z3.0
G1 X81.5 Y99.0
G1 Z5.5
G0 X111.0 Y99.0 Z5.5
G1 Z3.0
G1 X99.5 Y99.0
G1 Z5.5
G0 X124.5 Y99.0 Z5.5
G1 Z3.0
G1 X185.0 Y99.0
G1 Z5.5
G0 X212.0 Y99.0 Z5.5
G1 Z3.0
G1 X201.5 Y99.0
G1 Z5.5
G0 X224.5 Y99.0 Z5.5
G1 Z3.0
G1 X231.0 Y99.0
G1 Z5.5
G0 X244.5 Y99.0 Z5.5
G1 Z3.0
G1 X243.5 Y99.0
G1 Z5.5
G0 X255.0 Y99.0 Z5.5
G1 Z3.0
G1 X272.5 Y99.0
G1 Z5.5
G0 X51.0 Y99.5 Z5.5
G1 Z3.0
G1 X47.5 Y99.5
G1 Z5.5
G0 X80.5 Y99.5 Z5.5
G1 Z3.0
G1 X82.5 Y99.5
G1 Z5.5
G0 X111.5 Y99.5 Z5.5
G1 Z3.0
G1 X99.0 Y99.5
G1 Z5.5
G0 X124.0 Y99.5 Z5.5
G1 Z3.0
G1 X185.0 Y99.5
G1 Z5.5
G0 X212.5 Y99.5 Z5.5
G1 Z3.0
G1 X201.0 Y99.5
G1 Z5.5
G0 X223.5 Y99.5 Z5.5
G1 Z3.0
G1 X231.5 Y99.5
G1 Z5.5
G0 X245.0 Y99.5 Z5.5
G1 Z3.0
G1 X243.5 Y99.5
G1 Z5.5
G0 X255.0 Y99.5 Z5.5
G1 Z3.0
G1 X272.5 Y99.5
G1 Z5.5
G0 X51.5 Y100.0 Z5.5
G1 Z3.0
G1 X46.5 Y100.0
G1 Z5.5
G0 X80.5 Y100.0 Z5.5
G1 Z3.0
G1 X83.5 Y100.0
G1 Z5.5
G0 X112.5 Y100.0 Z5.5
G1 Z3.0
G1 X98.5 Y100.0
G1 Z5.5
G0 X123.5 Y100.0 Z5.5
G1 Z3.0
G1 X186.0 Y100.0
G1 Z5.5
G0 X213.5 Y100.0 Z5.5
G1 Z3.0
G1 X200.5 Y100.0
G1 Z5.5
G0 X222.5 Y100.0 Z5.5
G1 Z3.0
G1 X232.0 Y100.0
G1 Z5.5
G0 X245.0 Y100.0 Z5.5
G1 Z3.0
G1 X243.5 Y100.0
G1 Z5.5
G0 X254.5 Y100.0 Z5.5
G1 Z3.0
G1 X272.5 Y100.0
G1 Z5.5
G0 X52.0 Y100.5 Z5.5
G1 Z3.0
G1 X45.5 Y100.5
G1 Z5.5
G0 X80.5 Y100.5 Z5.5
G1 Z3.0
G1 X84.5 Y100.5
G1 Z5.5
G0 X113.5 Y100.5 Z5.5
G1 Z3.0
G1 X97.5 Y100.5
G1 Z5.5
G0 X123.5 Y100.5 Z5.5
G1 Z3.0
G1 X186.0 Y100.5
G1 Z5.5
G0 X214.5 Y100.5 Z5.5
G1 Z3.0
G1 X199.5 Y100.5
G1 Z5.5
G0 X221.5 Y100.5 Z5.5
G1 Z3.0
G1 X233.0 Y100.5
G1 Z5.5
G0 X245.5 Y100.5 Z5.5
G1 Z3.0
G1 X243.5 Y100.5
G1 Z5.5
G0 X254.5 Y100.5 Z5.5
G1 Z3.0
G1 X272.5 Y100.5
G1 Z5.5
G0 X52.0 Y101.0 Z5.5
G1 Z3.0
G1 X45.0 Y101.0
G1 Z5.5
G0 X80.5 Y101.0 Z5.5
G1 Z3.0
G1 X85.5 Y101.0
G1 Z5.5
G0 X114.0 Y101.0 Z5.5
G1 Z3.0
G1 X97.0 Y101.0
G1 Z5.5
G0 X123.0 Y101.0 Z5.5
G1 Z3.0
G1 X186.5 Y101.0
G1 Z5.5
G0 X216.0 Y101.0 Z5.5
G1 Z3.0
G1 X199.0 Y101.0
G1 Z5.5
G0 X220.0 Y101.0 Z5.5
G1 Z3.0
G1 X234.0 Y101.0
G1 Z5.5
G0 X246.0 Y101.0 Z5.5
G1 Z3.0
G1 X243.5 Y101.0
G1 Z5.5
G0 X254.0 Y101.0 Z5.5
G1 Z3.0
G1 X272.5 Y101.0
G1 Z5.5
G0 X52.5 Y101.5 Z5.5
G1 Z3.0
G1 X44.0 Y101.5
G1 Z5.5
G0 X80.0 Y101.5 Z5.5
G1 Z3.0
G1 X86.5 Y101.5
G1 Z5.5
G0 X115.0 Y101.5 Z5.5
G1 Z3.0
G1 X96.0 Y101.5
G1 Z5.5
G0 X123.5 Y101.5 Z5.5
G1 Z3.0
G1 X186.5 Y101.5
G1 Z5.5
G0 X235.5 Y101.5 Z5.5
G1 Z3.0
G1 X198.0 Y101.5
G1 Z5.5
G0 X243.5 Y101.5 Z5.5
G1 Z3.0
G1 X246.5 Y101.5
G1 Z5.5
G0 X272.5 Y101.5 Z5.5
G1 Z3.0
G1 X253.5 Y101.5
G1 Z5.5
G0 X43.0 Y102.0 Z5.5
G1 Z3.0
G1 X53.0 Y102.0
G1 Z5.5
G0 X88.0 Y102.0 Z5.5
G1 Z3.0
G1 X80.0 Y102.0
G1 Z5.5
G0 X95.0 Y102.0 Z5.5
G1 Z3.0
G1 X115.5 Y102.0
G1 Z5.5
G0 X188.0 Y102.0 Z5.5
G1 Z3.0
G1 X123.5 Y102.0
G1 Z5.5
G0 X197.5 Y102.0 Z5.5
G1 Z3.0
G1 X237.0 Y102.0
G1 Z5.5
G0 X246.5 Y102.0 Z5.5
G1 Z3.0
G1 X243.5 Y102.0
G1 Z5.5
G0 X253.5 Y102.0 Z5.5
G1 Z3.0
G1 X272.5 Y102.0
G1 Z5.5
G0 X53.5 Y102.5 Z5.5
G1 Z3.0
G1 X42.5 Y102.5
G1 Z5.5
G0 X79.5 Y102.5 Z5.5
G1 Z3.0
G1 X90.0 Y102.5
G1 Z5.5
G0 X116.5 Y102.5 Z5.5
G1 Z3.0
G1 X93.5 Y102.5
G1 Z5.5
G0 X122.5 Y102.5 Z5.5
G1 Z3.0
G1 X188.5 Y102.5
G1 Z5.5
G0 X238.5 Y102.5 Z5.5
G1 Z3.0
G1 X196.5 Y102.5
G1 Z5.5
G0 X243.5 Y102.5 Z5.5
G1 Z3.0
G1 X247.0 Y102.5
G1 Z5.5
G0 X272.5 Y102.5 Z5.5
G1 Z3.0
G1 X253.0 Y102.5
G1 Z5.5
G0 X41.5 Y103.0 Z5.5
G1 Z3.0
G1 X53.5 Y103.0
G1 Z5.5
G0 X117.0 Y103.0 Z5.5
G1 Z3.0
G1 X79.5 Y103.0
G1 Z5.5
G0 X121.0 Y103.0 Z5.5
G1 Z3.0
G1 X188.5 Y103.0
G1 Z5.5
G0 X241.5 Y103.0 Z5.5
G1 Z3.0
G1 X195.5 Y103.0
G1 Z5.5
G0 X242.5 Y103.0 Z5.5
G1 Z3.0
G1 X247.5 Y103.0
G1 Z5.5
G0 X272.5 Y103.0 Z5.5
G1 Z3.0
G1 X252.5 Y103.0
G1 Z5.5
G0 X40.0 Y103.5 Z5.5
G1 Z3.0
G1 X54.0 Y103.5
G1 Z5.5
G0 X67.0 Y103.5 Z5.5
G1 Z3.0
G1 X66.5 Y103.5
G1 Z5.5
G0 X79.0 Y103.5 Z5.5
G1 Z3.0
G1 X118.0 Y103.5
G1 Z5.5
G0 X188.5 Y103.5 Z5.5
G1 Z3.0
G1 X121.0 Y103.5
G1 Z5.5
G0 X195.0 Y103.5 Z5.5
G1 Z3.0
G1 X248.5 Y103.5
G1 Z5.5
G0 X272.5 Y103.5 Z5.5
G1 Z3.0
G1 X251.5 Y103.5
G1 Z5.5
G0 X39.0 Y104.0 Z5.5
G1 Z3.0
G1 X54.5 Y104.0
G1 Z5.5
G0 X67.0 Y104.0 Z5.5
G1 Z3.0
G1 X66.0 Y104.0
G1 Z5.5
G0 X78.5 Y104.0 Z5.5
G1 Z3.0
G1 X119.0 Y104.0
G1 Z5.5
G0 X188.0 Y104.0 Z5.5
G1 Z3.0
G1 X121.0 Y104.0
G1 Z5.5
G0 X194.0 Y104.0 Z5.5
G1 Z3.0
G1 X272.5 Y104.0
G1 Z5.5
G0 X55.0 Y104.5 Z5.5
G1 Z3.0
G1 X35.0 Y104.5
G1 Z5.5
G0 X66.0 Y104.5 Z5.5
G1 Z3.0
G1 X67.0 Y104.5
G1 Z5.5
G0 X187.5 Y104.5 Z5.5
G1 Z3.0
G1 X78.5 Y104.5
G1 Z5.5
G0 X193.0 Y104.5 Z5.5
G1 Z3.0
G1 X272.5 Y104.5
G1 Z5.5
G0 X55.0 Y105.0 Z5.5
G1 Z3.0
G1 X35.0 Y105.0
G1 Z5.5
G0 X65.5 Y105.0 Z5.5
G1 Z3.0
G1 X67.5 Y105.0
G1 Z5.5
G0 X187.0 Y105.0 Z5.5
G1 Z3.0
G1 X78.0 Y105.0
G1 Z5.5
G0 X192.5 Y105.0 Z5.5
G1 Z3.0
G1 X272.5 Y105.0
G1 Z5.5
G0 X55.5 Y105.5 Z5.5
G1 Z3.0
G1 X35.0 Y105.5
G1 Z5.5
G0 X65.5 Y105.5 Z5.5
G1 Z3.0
G1 X67.5 Y105.5
G1 Z5.5
G0 X186.5 Y105.5 Z5.5
G1 Z3.0
G1 X77.0 Y105.5
G1 Z5.5
G0 X191.5 Y105.5 Z5.5
G1 Z3.0
G1 X272.5 Y105.5
G1 Z5.5
G0 X56.0 Y106.0 Z5.5
G1 Z3.0
G1 X35.0 Y106.0
G1 Z5.5
G0 X65.0 Y106.0 Z5.5
G1 Z3.0
G1 X67.5 Y106.0
G1 Z5.5
G0 X186.5 Y106.0 Z5.5
G1 Z3.0
G1 X76.5 Y106.0
G1 Z5.5
G0 X190.5 Y106.0 Z5.5
G1 Z3.0
G1 X272.5 Y106.0
G1 Z5.5
G0 X56.5 Y106.5 Z5.5
G1 Z3.0
G1 X35.0 Y106.5
G1 Z5.5
G0 X65.0 Y106.5 Z5.5
G1 Z3.0
G1 X67.5 Y106.5
G1 Z5.5
G0 X186.0 Y106.5 Z5.5
G1 Z3.0
G1 X76.0 Y106.5
G1 Z5.5
G0 X189.5 Y106.5 Z5.5
G1 Z3.0
G1 X272.5 Y106.5
G1 Z5.5
G0 X57.0 Y107.0 Z5.5
G1 Z3.0
G1 X35.0 Y107.0
G1 Z5.5
G0 X64.5 Y107.0 Z5.5
G1 Z3.0
G1 X68.0 Y107.0
G1 Z5.5
G0 X186.0 Y107.0 Z5.5
G1 Z3.0
G1 X75.5 Y107.0
G1 Z5.5
G0 X188.0 Y107.0 Z5.5
G1 Z3.0
G1 X272.0 Y107.0
G1 Z5.5
G0 X57.5 Y107.5 Z5.5
G1 Z3.0
G1 X35.0 Y107.5
G1 Z5.5
G0 X64.5 Y107.5 Z5.5
G1 Z3.0
G1 X68.0 Y107.5
G1 Z5.5
G0 X271.5 Y107.5 Z5.5
G1 Z3.0
G1 X74.5 Y107.5
G1 Z5.5
G0 X35.0 Y108.0 Z5.5
G1 Z3.0
G1 X58.0 Y108.0
G1 Z5.5
G0 X68.5 Y108.0 Z5.5
G1 Z3.0
G1 X64.0 Y108.0
G1 Z5.5
G0 X74.0 Y108.0 Z5.5
G1 Z3.0
G1 X271.0 Y108.0
G1 Z5.5
G0 X58.5 Y108.5 Z5.5
G1 Z3.0
G1 X35.0 Y108.5
G1 Z5.5
G0 X64.0 Y108.5 Z5.5
G1 Z3.0
G1 X69.0 Y108.5
G1 Z5.5
G0 X270.5 Y108.5 Z5.5
G1 Z3.0
G1 X72.5 Y108.5
G1 Z5.5
G0 X35.0 Y109.0 Z5.5
G1 Z3.0
G1 X59.0 Y109.0
G1 Z5.5
G0 X70.0 Y109.0 Z5.5
G1 Z3.0
G1 X63.5 Y109.0
G1 Z5.5
G0 X71.5 Y109.0 Z5.5
G1 Z3.0
G1 X269.5 Y109.0
G1 Z5.5
G0 X59.5 Y109.5 Z5.5
G1 Z3.0
G1 X35.0 Y109.5
G1 Z5.5
G0 X63.0 Y109.5 Z5.5
G1 Z3.0
G1 X269.0 Y109.5
G1 Z5.5
G0 X60.5 Y110.0 Z5.5
G1 Z3.0
G1 X35.0 Y110.0
G1 Z5.5
G0 X62.0 Y110.0 Z5.5
G1 Z3.0
G1 X268.5 Y110.0
G1 Z5.5
G0 X268.0 Y110.5 Z5.5
G1 Z3.0
G1 X35.0 Y110.5
G1 Z5.5
G0 X35.0 Y111.0 Z5.5
G1 Z3.0
G1 X267.5 Y111.0
G1 Z5.5
G0 X267.0 Y111.5 Z5.5
G1 Z3.0
G1 X35.0 Y111.5
G1 Z5.5
G0 X35.0 Y112.0 Z5.5
G1 Z3.0
G1 X266.5 Y112.0
G1 Z5.5
G0 X266.0 Y112.5 Z5.5
G1 Z3.0
G1 X35.0 Y112.5
G1 Z5.5
G0 X35.0 Y113.0 Z5.5
G1 Z3.0
G1 X265.5 Y113.0
G1 Z5.5
G0 X264.5 Y113.5 Z5.5
G1 Z3.0
G1 X35.0 Y113.5
G1 Z5.5
G0 X36.0 Y114.0 Z5.5
G1 Z3.0
G1 X264.0 Y114.0
G1 Z5.5
G0 X263.5 Y114.5 Z5.5
G1 Z3.0
G1 X37.0 Y114.5
G1 Z5.5
G0 X38.0 Y115.0 Z5.5
G1 Z3.0
G1 X263.0 Y115.0
G1 Z5.5
G0 X262.5 Y115.5 Z5.5
G1 Z3.0
G1 X38.5 Y115.5
G1 Z5.5
G0 X39.5 Y116.0 Z5.5
G1 Z3.0
G1 X109.5 Y116.0
G1 Z5.5
G0 X262.0 Y116.0 Z5.5
G1 Z3.0
G1 X119.0 Y116.0
G1 Z5.5
G0 X40.5 Y116.5 Z5.5
G1 Z3.0
G1 X105.0 Y116.5
G1 Z5.5
G0 X261.5 Y116.5 Z5.5
G1 Z3.0
G1 X119.5 Y116.5
G1 Z5.5
G0 X41.0 Y117.0 Z5.5
G1 Z3.0
G1 X103.5 Y117.0
G1 Z5.5
G0 X261.0 Y117.0 Z5.5
G1 Z3.0
G1 X119.5 Y117.0
G1 Z5.5
G0 X42.0 Y117.5 Z5.5
G1 Z3.0
G1 X102.0 Y117.5
G1 Z5.5
G0 X199.0 Y117.5 Z5.5
G1 Z3.0
G1 X119.5 Y117.5
G1 Z5.5
G0 X211.0 Y117.5 Z5.5
G1 Z3.0
G1 X260.5 Y117.5
G1 Z5.5
G0 X101.0 Y118.0 Z5.5
G1 Z3.0
G1 X43.0 Y118.0
G1 Z5.5
G0 X119.5 Y118.0 Z5.5
G1 Z3.0
G1 X190.0 Y118.0
G1 Z5.5
G0 X195.5 Y118.0 Z5.5
G1 Z3.0
G1 X191.5 Y118.0
G1 Z5.5
G0 X213.0 Y118.0 Z5.5
G1 Z3.0
G1 X260.5 Y118.0
G1 Z5.5
G0 X100.0 Y118.5 Z5.5
G1 Z3.0
G1 X43.5 Y118.5
G1 Z5.5
G0 X120.0 Y118.5 Z5.5
G1 Z3.0
G1 X190.0 Y118.5
G1 Z5.5
G0 X260.0 Y118.5 Z5.5
G1 Z3.0
G1 X214.5 Y118.5
G1 Z5.5
G0 X44.5 Y119.0 Z5.5
G1 Z3.0
G1 X99.0 Y119.0
G1 Z5.5
G0 X189.5 Y119.0 Z5.5
G1 Z3.0
G1 X120.0 Y119.0
G1 Z5.5
G0 X215.5 Y119.0 Z5.5
G1 Z3.0
G1 X259.5 Y119.0
G1 Z5.5
G0 X98.0 Y119.5 Z5.5
G1 Z3.0
G1 X45.0 Y119.5
G1 Z5.5
G0 X120.0 Y119.5 Z5.5
G1 Z3.0
G1 X189.5 Y119.5
G1 Z5.5
G0 X259.0 Y119.5 Z5.5
G1 Z3.0
G1 X216.5 Y119.5
G1 Z5.5
G0 X46.0 Y120.0 Z5.5
G1 Z3.0
G1 X97.5 Y120.0
G1 Z5.5
G0 X189.5 Y120.0 Z5.5
G1 Z3.0
G1 X120.5 Y120.0
G1 Z5.5
G0 X218.0 Y120.0 Z5.5
G1 Z3.0
G1 X258.5 Y120.0
G1 Z5.5
G0 X96.5 Y120.5 Z5.5
G1 Z3.0
G1 X46.5 Y120.5
G1 Z5.5
G0 X120.5 Y120.5 Z5.5
G1 Z3.0
G1 X189.0 Y120.5
G1 Z5.5
G0 X258.0 Y120.5 Z5.5
G1 Z3.0
G1 X218.5 Y120.5
G1 Z5.5
G0 X47.5 Y121.0 Z5.5
G1 Z3.0
G1 X96.0 Y121.0
G1 Z5.5
G0 X189.0 Y121.0 Z5.5
G1 Z3.0
G1 X121.0 Y121.0
G1 Z5.5
G0 X219.5 Y121.0 Z5.5
G1 Z3.0
G1 X257.5 Y121.0
G1 Z5.5
G0 X95.5 Y121.5 Z5.5
G1 Z3.0
G1 X48.0 Y121.5
G1 Z5.5
G0 X121.0 Y121.5 Z5.5
G1 Z3.0
G1 X189.0 Y121.5
G1 Z5.5
G0 X257.0 Y121.5 Z5.5
G1 Z3.0
G1 X220.5 Y121.5
G1 Z5.5
G0 X49.0 Y122.0 Z5.5
G1 Z3.0
G1 X95.0 Y122.0
G1 Z5.5
G0 X188.5 Y122.0 Z5.5
G1 Z3.0
G1 X121.0 Y122.0
G1 Z5.5
G0 X221.5 Y122.0 Z5.5
G1 Z3.0
G1 X257.0 Y122.0
G1 Z5.5
G0 X94.5 Y122.5 Z5.5
G1 Z3.0
G1 X49.5 Y122.5
G1 Z5.5
G0 X121.5 Y122.5 Z5.5
G1 Z3.0
G1 X188.5 Y122.5
G1 Z5.5
G0 X256.5 Y122.5 Z5.5
G1 Z3.0
G1 X222.0 Y122.5
G1 Z5.5
G0 X50.5 Y123.0 Z5.5
G1 Z3.0
G1 X93.5 Y123.0
G1 Z5.5
G0 X188.0 Y123.0 Z5.5
G1 Z3.0
G1 X121.5 Y123.0
G1 Z5.5
G0 X223.0 Y123.0 Z5.5
G1 Z3.0
G1 X256.0 Y123.0
G1 Z5.5
G0 X93.0 Y123.5 Z5.5
G1 Z3.0
G1 X51.0 Y123.5
G1 Z5.5
G0 X122.0 Y123.5 Z5.5
G1 Z3.0
G1 X188.0 Y123.5
G1 Z5.5
G0 X255.5 Y123.5 Z5.5
G1 Z3.0
G1 X223.5 Y123.5
G1 Z5.5
G0 X52.0 Y124.0 Z5.5
G1 Z3.0
G1 X92.5 Y124.0
G1 Z5.5
G0 X187.5 Y124.0 Z5.5
G1 Z3.0
G1 X122.0 Y124.0
G1 Z5.5
G0 X224.5 Y124.0 Z5.5
G1 Z3.0
G1 X255.0 Y124.0
G1 Z5.5
G0 X92.0 Y124.5 Z5.5
G1 Z3.0
G1 X52.5 Y124.5
G1 Z5.5
G0 X122.5 Y124.5 Z5.5
G1 Z3.0
G1 X187.5 Y124.5
G1 Z5.5
G0 X254.5 Y124.5 Z5.5
G1 Z3.0
G1 X225.0 Y124.5
G1 Z5.5
G0 X53.0 Y125.0 Z5.5
G1 Z3.0
G1 X91.5 Y125.0
G1 Z5.5
G0 X187.5 Y125.0 Z5.5
G1 Z3.0
G1 X122.5 Y125.0
G1 Z5.5
G0 X226.0 Y125.0 Z5.5
G1 Z3.0
G1 X254.5 Y125.0
G1 Z5.5
G0 X91.0 Y125.5 Z5.5
G1 Z3.0
G1 X54.0 Y125.5
G1 Z5.5
G0 X123.0 Y125.5 Z5.5
G1 Z3.0
G1 X187.0 Y125.5
G1 Z5.5
G0 X254.0 Y125.5 Z5.5
G1 Z3.0
G1 X226.5 Y125.5
G1 Z5.5
G0 X54.5 Y126.0 Z5.5
G1 Z3.0
G1 X90.5 Y126.0
G1 Z5.5
G0 X187.0 Y126.0 Z5.5
G1 Z3.0
G1 X123.0 Y126.0
G1 Z5.5
G0 X227.5 Y126.0 Z5.5
G1 Z3.0
G1 X253.5 Y126.0
G1 Z5.5
G0 X90.0 Y126.5 Z5.5
G1 Z3.0
G1 X55.0 Y126.5
G1 Z5.5
G0 X123.5 Y126.5 Z5.5
G1 Z3.0
G1 X186.5 Y126.5
G1 Z5.5
G0 X253.0 Y126.5 Z5.5
G1 Z3.0
G1 X228.0 Y126.5
G1 Z5.5
G0 X55.5 Y127.0 Z5.5
G1 Z3.0
G1 X89.5 Y127.0
G1 Z5.5
G0 X186.5 Y127.0 Z5.5
G1 Z3.0
G1 X123.5 Y127.0
G1 Z5.5
G0 X229.0 Y127.0 Z5.5
G1 Z3.0
G1 X253.0 Y127.0
G1 Z5.5
G0 X89.0 Y127.5 Z5.5
G1 Z3.0
G1 X56.5 Y127.5
G1 Z5.5
G0 X124.0 Y127.5 Z5.5
G1 Z3.0
G1 X186.0 Y127.5
G1 Z5.5
G0 X252.5 Y127.5 Z5.5
G1 Z3.0
G1 X230.0 Y127.5
G1 Z5.5
G0 X57.0 Y128.0 Z5.5
G1 Z3.0
G1 X88.5 Y128.0
G1 Z5.5
G0 X186.0 Y128.0 Z5.5
G1 Z3.0
G1 X124.5 Y128.0
G1 Z5.5
G0 X230.5 Y128.0 Z5.5
G1 Z3.0
G1 X252.0 Y128.0
G1 Z5.5
G0 X87.5 Y128.5 Z5.5
G1 Z3.0
G1 X57.5 Y128.5
G1 Z5.5
G0 X124.5 Y128.5 Z5.5
G1 Z3.0
G1 X185.5 Y128.5
G1 Z5.5
G0 X251.5 Y128.5 Z5.5
G1 Z3.0
G1 X231.5 Y128.5
G1 Z5.5
G0 X58.0 Y129.0 Z5.5
G1 Z3.0
G1 X87.0 Y129.0
G1 Z5.5
G0 X185.0 Y129.0 Z5.5
G1 Z3.0
G1 X125.0 Y129.0
G1 Z5.5
G0 X232.5 Y129.0 Z5.5
G1 Z3.0
G1 X251.5 Y129.0
G1 Z5.5
G0 X86.5 Y129.5 Z5.5
G1 Z3.0
G1 X58.5 Y129.5
G1 Z5.5
G0 X125.0 Y129.5 Z5.5
G1 Z3.0
G1 X185.0 Y129.5
G1 Z5.5
G0 X251.0 Y129.5 Z5.5
G1 Z3.0
G1 X233.5 Y129.5
G1 Z5.5
G0 X59.5 Y130.0 Z5.5
G1 Z3.0
G1 X86.0 Y130.0
G1 Z5.5
G0 X184.5 Y130.0 Z5.5
G1 Z3.0
G1 X125.5 Y130.0
G1 Z5.5
G0 X235.0 Y130.0 Z5.5
G1 Z3.0
G1 X250.5 Y130.0
G1 Z5.5
G0 X85.5 Y130.5 Z5.5
G1 Z3.0
G1 X60.0 Y130.5
G1 Z5.5
G0 X126.0 Y130.5 Z5.5
G1 Z3.0
G1 X184.0 Y130.5
G1 Z5.5
G0 X250.5 Y130.5 Z5.5
G1 Z3.0
G1 X236.5 Y130.5
G1 Z5.5
G0 X60.5 Y131.0 Z5.5
G1 Z3.0
G1 X85.0 Y131.0
G1 Z5.5
G0 X184.0 Y131.0 Z5.5
G1 Z3.0
G1 X126.5 Y131.0
G1 Z5.5
G0 X237.5 Y131.0 Z5.5
G1 Z3.0
G1 X250.0 Y131.0
G1 Z5.5
G0 X84.5 Y131.5 Z5.5
G1 Z3.0
G1 X61.0 Y131.5
G1 Z5.5
G0 X126.5 Y131.5 Z5.5
G1 Z3.0
G1 X183.5 Y131.5
G1 Z5.5
G0 X249.5 Y131.5 Z5.5
G1 Z3.0
G1 X239.0 Y131.5
G1 Z5.5
G0 X61.5 Y132.0 Z5.5
G1 Z3.0
G1 X83.5 Y132.0
G1 Z5.5
G0 X183.0 Y132.0 Z5.5
G1 Z3.0
G1 X127.0 Y132.0
G1 Z5.5
G0 X240.5 Y132.0 Z5.5
G1 Z3.0
G1 X249.5 Y132.0
G1 Z5.5
G0 X83.0 Y132.5 Z5.5
G1 Z3.0
G1 X62.0 Y132.5
G1 Z5.5
G0 X128.0 Y132.5 Z5.5
G1 Z3.0
G1 X182.5 Y132.5
G1 Z5.5
G0 X249.0 Y132.5 Z5.5
G1 Z3.0
G1 X242.0 Y132.5
G1 Z5.5
G0 X62.5 Y133.0 Z5.5
G1 Z3.0
G1 X82.5 Y133.0
G1 Z5.5
G0 X181.5 Y133.0 Z5.5
G1 Z3.0
G1 X128.5 Y133.0
G1 Z5.5
G0 X242.5 Y133.0 Z5.5
G1 Z3.0
G1 X248.5 Y133.0
G1 Z5.5
G0 X81.5 Y133.5 Z5.5
G1 Z3.0
G1 X63.0 Y133.5
G1 Z5.5
G0 X129.5 Y133.5 Z5.5
G1 Z3.0
G1 X180.5 Y133.5
G1 Z5.5
G0 X248.5 Y133.5 Z5.5
G1 Z3.0
G1 X243.0 Y133.5
G1 Z5.5
G0 X63.5 Y134.0 Z5.5
G1 Z3.0
G1 X80.5 Y134.0
G1 Z5.5
G0 X179.5 Y134.0 Z5.5
G1 Z3.0
G1 X130.5 Y134.0
G1 Z5.5
G0 X243.5 Y134.0 Z5.5
G1 Z3.0
G1 X248.0 Y134.0
G1 Z5.5
G0 X80.0 Y134.5 Z5.5
G1 Z3.0
G1 X64.0 Y134.5
G1 Z5.5
G0 X132.0 Y134.5 Z5.5
G1 Z3.0
G1 X178.0 Y134.5
G1 Z5.5
G0 X247.5 Y134.5 Z5.5
G1 Z3.0
G1 X244.0 Y134.5
G1 Z5.5
G0 X64.5 Y135.0 Z5.5
G1 Z3.0
G1 X79.0 Y135.0
G1 Z5.5
G0 X176.0 Y135.0 Z5.5
G1 Z3.0
G1 X134.0 Y135.0
G1 Z5.5
G0 X244.0 Y135.0 Z5.5
G1 Z3.0
G1 X247.0 Y135.0
G1 Z5.5
G0 X78.0 Y135.5 Z5.5
G1 Z3.0
G1 X65.0 Y135.5
G1 Z5.5
G0 X136.0 Y135.5 Z5.5
G1 Z3.0
G1 X173.5 Y135.5
G1 Z5.5
G0 X247.0 Y135.5 Z5.5
G1 Z3.0
G1 X244.0 Y135.5
G1 Z5.5
G0 X65.5 Y136.0 Z5.5
G1 Z3.0
G1 X77.0 Y136.0
G1 Z5.5
G0 X170.0 Y136.0 Z5.5
G1 Z3.0
G1 X139.0 Y136.0
G1 Z5.5
G0 X244.0 Y136.0 Z5.5
G1 Z3.0
G1 X246.5 Y136.0
G1 Z5.5
G0 X76.5 Y136.5 Z5.5
G1 Z3.0
G1 X66.0 Y136.5
G1 Z5.5
G0 X142.0 Y136.5 Z5.5
G1 Z3.0
G1 X167.5 Y136.5
G1 Z5.5
G0 X246.0 Y136.5 Z5.5
G1 Z3.0
G1 X244.0 Y136.5
G1 Z5.5
G0 X66.5 Y137.0 Z5.5
G1 Z3.0
G1 X75.5 Y137.0
G1 Z5.5
G0 X165.5 Y137.0 Z5.5
G1 Z3.0
G1 X144.0 Y137.0
G1 Z5.5
G0 X244.0 Y137.0 Z5.5
G1 Z3.0
G1 X245.5 Y137.0
G1 Z5.5
G0 X74.5 Y137.5 Z5.5
G1 Z3.0
G1 X67.0 Y137.5
G1 Z5.5
G0 X145.5 Y137.5 Z5.5
G1 Z3.0
G1 X164.5 Y137.5
G1 Z5.5
G0 X244.5 Y137.5 Z5.5
G1 Z3.0
G1 X244.5 Y137.5
G1 Z5.5
G0 X67.5 Y138.0 Z5.5
G1 Z3.0
G1 X74.0 Y138.0
G1 Z5.5
G0 X163.0 Y138.0 Z5.5
G1 Z3.0
G1 X146.5 Y138.0
G1 Z5.5
G0 X68.0 Y138.5 Z5.5
G1 Z3.0
G1 X73.5 Y138.5
G1 Z5.5
G0 X162.5 Y138.5 Z5.5
G1 Z3.0
G1 X147.0 Y138.5
G1 Z5.5
G0 X68.5 Y139.0 Z5.5
G1 Z3.0
G1 X73.5 Y139.0
G1 Z5.5
G0 X162.5 Y139.0 Z5.5
G1 Z3.0
G1 X147.5 Y139.0
G1 Z5.5
G0 X69.0 Y139.5 Z5.5
G1 Z3.0
G1 X73.5 Y139.5
G1 Z5.5
G0 X143.0 Y139.5 Z5.5
G1 Z3.0
G1 X142.5 Y139.5
G1 Z5.5
G0 X147.0 Y139.5 Z5.5
G1 Z3.0
G1 X162.5 Y139.5
G1 Z5.5
G0 X73.5 Y140.0 Z5.5
G1 Z3.0
G1 X69.5 Y140.0
G1 Z5.5
G0 X140.5 Y140.0 Z5.5
G1 Z3.0
G1 X140.5 Y140.0
G1 Z5.5
G0 X143.0 Y140.0 Z5.5
G1 Z3.0
G1 X142.0 Y140.0
G1 Z5.5
G0 X147.0 Y140.0 Z5.5
G1 Z3.0
G1 X163.0 Y140.0
G1 Z5.5
G0 X73.5 Y140.5 Z5.5
G1 Z3.0
G1 X70.0 Y140.5
G1 Z5.5
G0 X140.0 Y140.5 Z5.5
G1 Z3.0
G1 X143.0 Y140.5
G1 Z5.5
G0 X163.5 Y140.5 Z5.5
G1 Z3.0
G1 X146.0 Y140.5
G1 Z5.5
G0 X70.5 Y141.0 Z5.5
G1 Z3.0
G1 X74.0 Y141.0
G1 Z5.5
G0 X143.0 Y141.0 Z5.5
G1 Z3.0
G1 X139.5 Y141.0
G1 Z5.5
G0 X144.0 Y141.0 Z5.5
G1 Z3.0
G1 X144.0 Y141.0
G1 Z5.5
G0 X163.5 Y141.0 Z5.5
G1 Z3.0
G1 X145.5 Y141.0
G1 Z5.5
G0 X167.5 Y141.0 Z5.5
G1 Z3.0
G1 X168.0 Y141.0
G1 Z5.5
G0 X74.0 Y141.5 Z5.5
G1 Z3.0
G1 X71.0 Y141.5
G1 Z5.5
G0 X137.5 Y141.5 Z5.5
G1 Z3.0
G1 X137.5 Y141.5
G1 Z5.5
G0 X143.0 Y141.5 Z5.5
G1 Z3.0
G1 X139.0 Y141.5
G1 Z5.5
G0 X144.0 Y141.5 Z5.5
G1 Z3.0
G1 X144.0 Y141.5
G1 Z5.5
G0 X164.0 Y141.5 Z5.5
G1 Z3.0
G1 X145.0 Y141.5
G1 Z5.5
G0 X167.5 Y141.5 Z5.5
G1 Z3.0
G1 X168.5 Y141.5
G1 Z5.5
G0 X171.5 Y141.5 Z5.5
G1 Z3.0
G1 X171.5 Y141.5
G1 Z5.5
G0 X71.5 Y142.0 Z5.5
G1 Z3.0
G1 X74.0 Y142.0
G1 Z5.5
G0 X164.5 Y142.0 Z5.5
G1 Z3.0
G1 X137.5 Y142.0
G1 Z5.5
G0 X167.5 Y142.0 Z5.5
G1 Z3.0
G1 X168.5 Y142.0
G1 Z5.5
G0 X172.0 Y142.0 Z5.5
G1 Z3.0
G1 X171.5 Y142.0
G1 Z5.5
G0 X72.0 Y142.5 Z5.5
G1 Z3.0
G1 X74.0 Y142.5
G1 Z5.5
G0 X165.0 Y142.5 Z5.5
G1 Z3.0
G1 X137.5 Y142.5
G1 Z5.5
G0 X166.5 Y142.5 Z5.5
G1 Z3.0
G1 X166.5 Y142.5
G1 Z5.5
G0 X169.0 Y142.5 Z5.5
G1 Z3.0
G1 X167.5 Y142.5
G1 Z5.5
G0 X171.5 Y142.5 Z5.5
G1 Z3.0
G1 X172.0 Y142.5
G1 Z5.5
G0 X73.5 Y143.0 Z5.5
G1 Z3.0
G1 X73.0 Y143.0
G1 Z5.5
G0 X135.0 Y143.0 Z5.5
G1 Z3.0
G1 X135.0 Y143.0
G1 Z5.5
G0 X162.0 Y143.0 Z5.5
G1 Z3.0
G1 X137.5 Y143.0
G1 Z5.5
G0 X163.0 Y143.0 Z5.5
G1 Z3.0
G1 X165.5 Y143.0
G1 Z5.5
G0 X170.5 Y143.0 Z5.5
G1 Z3.0
G1 X166.5 Y143.0
G1 Z5.5
G0 X171.5 Y143.0 Z5.5
G1 Z3.0
G1 X172.5 Y143.0
G1 Z5.5
G0 X129.0 Y143.5 Z5.5
G1 Z3.0
G1 X129.0 Y143.5
G1 Z5.5
G0 X134.5 Y143.5 Z5.5
G1 Z3.0
G1 X135.0 Y143.5
G1 Z5.5
G0 X173.0 Y143.5 Z5.5
G1 Z3.0
G1 X137.5 Y143.5
G1 Z5.5
G0 X129.0 Y144.0 Z5.5
G1 Z3.0
G1 X129.5 Y144.0
G1 Z5.5
G0 X135.5 Y144.0 Z5.5
G1 Z3.0
G1 X134.0 Y144.0
G1 Z5.5
G0 X137.0 Y144.0 Z5.5
G1 Z3.0
G1 X173.0 Y144.0
G1 Z5.5
G0 X130.0 Y144.5 Z5.5
G1 Z3.0
G1 X129.0 Y144.5
G1 Z5.5
G0 X133.5 Y144.5 Z5.5
G1 Z3.0
G1 X135.5 Y144.5
G1 Z5.5
G0 X173.0 Y144.5 Z5.5
G1 Z3.0
G1 X137.0 Y144.5
G1 Z5.5
G0 X129.5 Y145.0 Z5.5
G1 Z3.0
G1 X130.5 Y145.0
G1 Z5.5
G0 X135.5 Y145.0 Z5.5
G1 Z3.0
G1 X133.5 Y145.0
G1 Z5.5
G0 X136.5 Y145.0 Z5.5
G1 Z3.0
G1 X173.5 Y145.0
G1 Z5.5
G0 X131.0 Y145.5 Z5.5
G1 Z3.0
G1 X129.5 Y145.5
G1 Z5.5
G0 X133.0 Y145.5 Z5.5
G1 Z3.0
G1 X173.5 Y145.5
G1 Z5.5
G0 X131.5 Y146.0 Z5.5
G1 Z3.0
G1 X129.5 Y146.0
G1 Z5.5
G0 X133.0 Y146.0 Z5.5
G1 Z3.0
G1 X173.5 Y146.0
G1 Z5.5
G0 X177.0 Y146.0 Z5.5
G1 Z3.0
G1 X176.5 Y146.0
G1 Z5.5
G0 X129.5 Y146.5 Z5.5
G1 Z3.0
G1 X174.0 Y146.5
G1 Z5.5
G0 X177.0 Y146.5 Z5.5
G1 Z3.0
G1 X176.0 Y146.5
G1 Z5.5
G0 X181.5 Y146.5 Z5.5
G1 Z3.0
G1 X182.0 Y146.5
G1 Z5.5
G0 X174.0 Y147.0 Z5.5
G1 Z3.0
G1 X130.0 Y147.0
G1 Z5.5
G0 X176.0 Y147.0 Z5.5
G1 Z3.0
G1 X177.5 Y147.0
G1 Z5.5
G0 X181.5 Y147.0 Z5.5
G1 Z3.0
G1 X181.0 Y147.0
G1 Z5.5
G0 X130.0 Y147.5 Z5.5
G1 Z3.0
G1 X174.5 Y147.5
G1 Z5.5
G0 X177.5 Y147.5 Z5.5
G1 Z3.0
G1 X175.5 Y147.5
G1 Z5.5
G0 X180.0 Y147.5 Z5.5
G1 Z3.0
G1 X181.0 Y147.5
G1 Z5.5
G0 X178.0 Y148.0 Z5.5
G1 Z3.0
G1 X130.0 Y148.0
G1 Z5.5
G0 X179.0 Y148.0 Z5.5
G1 Z3.0
G1 X181.0 Y148.0
G1 Z5.5
G0 X180.5 Y148.5 Z5.5
G1 Z3.0
G1 X127.0 Y148.5
G1 Z5.5
G0 X127.0 Y149.0 Z5.5
G1 Z3.0
G1 X180.5 Y149.0
G1 Z5.5
G0 X180.0 Y149.5 Z5.5
G1 Z3.0
G1 X127.5 Y149.5
G1 Z5.5
G0 X128.0 Y150.0 Z5.5
G1 Z3.0
G1 X180.0 Y150.0
G1 Z5.5
G0 X180.0 Y150.5 Z5.5
G1 Z3.0
G1 X128.5 Y150.5
G1 Z5.5
G0 X128.5 Y151.0 Z5.5
G1 Z3.0
G1 X179.5 Y151.0
G1 Z5.5
G0 X180.0 Y151.5 Z5.5
G1 Z3.0
G1 X129.0 Y151.5
G1 Z5.5
G0 X129.0 Y152.0 Z5.5
G1 Z3.0
G1 X183.5 Y152.0
G1 Z5.5
G0 X183.5 Y152.5 Z5.5
G1 Z3.0
G1 X129.5 Y152.5
G1 Z5.5
G0 X130.0 Y153.0 Z5.5
G1 Z3.0
G1 X183.0 Y153.0
G1 Z5.5
G0 X182.0 Y153.5 Z5.5
G1 Z3.0
G1 X130.0 Y153.5
G1 Z5.5
G0 X130.0 Y154.0 Z5.5
G1 Z3.0
G1 X181.5 Y154.0
G1 Z5.5
G0 X181.0 Y154.5 Z5.5
G1 Z3.0
G1 X130.5 Y154.5
G1 Z5.5
G0 X130.5 Y155.0 Z5.5
G1 Z3.0
G1 X180.5 Y155.0
G1 Z5.5
G0 X180.0 Y155.5 Z5.5
G1 Z3.0
G1 X130.5 Y155.5
G1 Z5.5
G0 X130.5 Y156.0 Z5.5
G1 Z3.0
G1 X180.0 Y156.0
G1 Z5.5
G0 X179.5 Y156.5 Z5.5
G1 Z3.0
G1 X130.0 Y156.5
G1 Z5.5
G0 X130.0 Y157.0 Z5.5
G1 Z3.0
G1 X179.0 Y157.0
G1 Z5.5
G0 X179.0 Y157.5 Z5.5
G1 Z3.0
G1 X129.5 Y157.5
G1 Z5.5
G0 X129.0 Y158.0 Z5.5
G1 Z3.0
G1 X178.5 Y158.0
G1 Z5.5
G0 X178.0 Y158.5 Z5.5
G1 Z3.0
G1 X129.0 Y158.5
G1 Z5.5
G0 X128.5 Y159.0 Z5.5
G1 Z3.0
G1 X178.0 Y159.0
G1 Z5.5
G0 X125.5 Y159.5 Z5.5
G1 Z3.0
G1 X124.5 Y159.5
G1 Z5.5
G0 X128.0 Y159.5 Z5.5
G1 Z3.0
G1 X178.0 Y159.5
G1 Z5.5
G0 X126.0 Y160.0 Z5.5
G1 Z3.0
G1 X124.0 Y160.0
G1 Z5.5
G0 X127.5 Y160.0 Z5.5
G1 Z3.0
G1 X178.0 Y160.0
G1 Z5.5
G0 X180.5 Y160.0 Z5.5
G1 Z3.0
G1 X179.5 Y160.0
G1 Z5.5
G0 X123.5 Y160.5 Z5.5
G1 Z3.0
G1 X178.0 Y160.5
G1 Z5.5
G0 X180.5 Y160.5 Z5.5
G1 Z3.0
G1 X179.0 Y160.5
G1 Z5.5
G0 X122.5 Y161.0 Z5.5
G1 Z3.0
G1 X180.5 Y161.0
G1 Z5.5
G0 X180.5 Y161.5 Z5.5
G1 Z3.0
G1 X122.0 Y161.5
G1 Z5.5
G0 X121.5 Y162.0 Z5.5
G1 Z3.0
G1 X181.0 Y162.0
G1 Z5.5
G0 X181.0 Y162.5 Z5.5
G1 Z3.0
G1 X121.0 Y162.5
G1 Z5.5
G0 X120.5 Y163.0 Z5.5
G1 Z3.0
G1 X181.5 Y163.0
G1 Z5.5
G0 X181.5 Y163.5 Z5.5
G1 Z3.0
G1 X120.0 Y163.5
G1 Z5.5
G0 X119.5 Y164.0 Z5.5
G1 Z3.0
G1 X181.5 Y164.0
G1 Z5.5
G0 X182.0 Y164.5 Z5.5
G1 Z3.0
G1 X118.5 Y164.5
G1 Z5.5
G0 X118.0 Y165.0 Z5.5
G1 Z3.0
G1 X182.0 Y165.0
G1 Z5.5
G0 X185.5 Y165.0 Z5.5
G1 Z3.0
G1 X184.0 Y165.0
G1 Z5.5
G0 X117.5 Y165.5 Z5.5
G1 Z3.0
G1 X186.0 Y165.5
G1 Z5.5
G0 X186.0 Y166.0 Z5.5
G1 Z3.0
G1 X117.5 Y166.0
G1 Z5.5
G0 X118.0 Y166.5 Z5.5
G1 Z3.0
G1 X186.0 Y166.5
G1 Z5.5
G0 X186.0 Y167.0 Z5.5
G1 Z3.0
G1 X118.0 Y167.0
G1 Z5.5
G0 X119.0 Y167.5 Z5.5
G1 Z3.0
G1 X186.0 Y167.5
G1 Z5.5
G0 X186.0 Y168.0 Z5.5
G1 Z3.0
G1 X119.5 Y168.0
G1 Z5.5
G0 X119.5 Y168.5 Z5.5
G1 Z3.0
G1 X186.0 Y168.5
G1 Z5.5
G0 X186.0 Y169.0 Z5.5
G1 Z3.0
G1 X119.5 Y169.0
G1 Z5.5
G0 X119.5 Y169.5 Z5.5
G1 Z3.0
G1 X186.0 Y169.5
G1 Z5.5
G0 X185.5 Y170.0 Z5.5
G1 Z3.0
G1 X119.5 Y170.0
G1 Z5.5
G0 X120.0 Y170.5 Z5.5
G1 Z3.0
G1 X185.5 Y170.5
G1 Z5.5
G0 X184.5 Y171.0 Z5.5
G1 Z3.0
G1 X120.5 Y171.0
G1 Z5.5
G0 X123.0 Y171.5 Z5.5
G1 Z3.0
G1 X184.0 Y171.5
G1 Z5.5
G0 X183.5 Y172.0 Z5.5
G1 Z3.0
G1 X124.0 Y172.0
G1 Z5.5
G0 X124.5 Y172.5 Z5.5
G1 Z3.0
G1 X183.0 Y172.5
G1 Z5.5
G0 X182.0 Y173.0 Z5.5
G1 Z3.0
G1 X125.0 Y173.0
G1 Z5.5
G0 X190.5 Y173.0 Z5.5
G1 Z3.0
G1 X190.5 Y173.0
G1 Z5.5
G0 X181.5 Y173.5 Z5.5
G1 Z3.0
G1 X125.5 Y173.5
G1 Z5.5
G0 X188.5 Y173.5 Z5.5
G1 Z3.0
G1 X191.0 Y173.5
G1 Z5.5
G0 X181.5 Y174.0 Z5.5
G1 Z3.0
G1 X126.0 Y174.0
G1 Z5.5
G0 X187.5 Y174.0 Z5.5
G1 Z3.0
G1 X191.0 Y174.0
G1 Z5.5
G0 X181.0 Y174.5 Z5.5
G1 Z3.0
G1 X126.5 Y174.5
G1 Z5.5
G0 X185.5 Y174.5 Z5.5
G1 Z3.0
G1 X191.0 Y174.5
G1 Z5.5
G0 X181.0 Y175.0 Z5.5
G1 Z3.0
G1 X127.0 Y175.0
G1 Z5.5
G0 X183.5 Y175.0 Z5.5
G1 Z3.0
G1 X191.0 Y175.0
G1 Z5.5
G0 X180.5 Y175.5 Z5.5
G1 Z3.0
G1 X127.0 Y175.5
G1 Z5.5
G0 X182.5 Y175.5 Z5.5
G1 Z3.0
G1 X191.0 Y175.5
G1 Z5.5
G0 X191.5 Y176.0 Z5.5
G1 Z3.0
G1 X127.5 Y176.0
G1 Z5.5
G0 X127.0 Y176.5 Z5.5
G1 Z3.0
G1 X191.5 Y176.5
G1 Z5.5
G0 X191.5 Y177.0 Z5.5
G1 Z3.0
G1 X127.0 Y177.0
G1 Z5.5
G0 X126.5 Y177.5 Z5.5
G1 Z3.0
G1 X191.5 Y177.5
G1 Z5.5
G0 X191.5 Y178.0 Z5.5
G1 Z3.0
G1 X126.5 Y178.0
G1 Z5.5
G0 X126.5 Y178.5 Z5.5
G1 Z3.0
G1 X191.5 Y178.5
G1 Z5.5
G0 X191.5 Y179.0 Z5.5
G1 Z3.0
G1 X126.5 Y179.0
G1 Z5.5
G0 X126.5 Y179.5 Z5.5
G1 Z3.0
G1 X191.5 Y179.5
G1 Z5.5
G0 X191.5 Y180.0 Z5.5
G1 Z3.0
G1 X126.5 Y180.0
G1 Z5.5
G0 X126.5 Y180.5 Z5.5
G1 Z3.0
G1 X191.5 Y180.5
G1 Z5.5
G0 X191.5 Y181.0 Z5.5
G1 Z3.0
G1 X126.5 Y181.0
G1 Z5.5
G0 X126.5 Y181.5 Z5.5
G1 Z3.0
G1 X191.5 Y181.5
G1 Z5.5
G0 X191.5 Y182.0 Z5.5
G1 Z3.0
G1 X126.5 Y182.0
G1 Z5.5
G0 X126.5 Y182.5 Z5.5
G1 Z3.0
G1 X191.0 Y182.5
G1 Z5.5
G0 X191.0 Y183.0 Z5.5
G1 Z3.0
G1 X126.5 Y183.0
G1 Z5.5
G0 X126.5 Y183.5 Z5.5
G1 Z3.0
G1 X191.5 Y183.5
G1 Z5.5
G0 X192.5 Y184.0 Z5.5
G1 Z3.0
G1 X126.5 Y184.0
G1 Z5.5
G0 X126.5 Y184.5 Z5.5
G1 Z3.0
G1 X196.0 Y184.5
G1 Z5.5
G0 X198.0 Y185.0 Z5.5
G1 Z3.0
G1 X126.5 Y185.0
G1 Z5.5
G0 X126.5 Y185.5 Z5.5
G1 Z3.0
G1 X199.5 Y185.5
G1 Z5.5
G0 X200.5 Y186.0 Z5.5
G1 Z3.0
G1 X126.5 Y186.0
G1 Z5.5
G0 X126.5 Y186.5 Z5.5
G1 Z3.0
G1 X200.5 Y186.5
G1 Z5.5
G0 X200.5 Y187.0 Z5.5
G1 Z3.0
G1 X126.5 Y187.0
G1 Z5.5
G0 X126.5 Y187.5 Z5.5
G1 Z3.0
G1 X200.0 Y187.5
G1 Z5.5
G0 X200.0 Y188.0 Z5.5
G1 Z3.0
G1 X127.0 Y188.0
G1 Z5.5
G0 X127.0 Y188.5 Z5.5
G1 Z3.0
G1 X199.5 Y188.5
G1 Z5.5
G0 X198.5 Y189.0 Z5.5
G1 Z3.0
G1 X127.0 Y189.0
G1 Z5.5
G0 X127.0 Y189.5 Z5.5
G1 Z3.0
G1 X198.0 Y189.5
G1 Z5.5
G0 X197.5 Y190.0 Z5.5
G1 Z3.0
G1 X127.0 Y190.0
G1 Z5.5
G0 X127.5 Y190.5 Z5.5
G1 Z3.0
G1 X197.0 Y190.5
G1 Z5.5
G0 X196.5 Y191.0 Z5.5
G1 Z3.0
G1 X127.5 Y191.0
G1 Z5.5
G0 X127.5 Y191.5 Z5.5
G1 Z3.0
G1 X196.0 Y191.5
G1 Z5.5
G0 X196.0 Y192.0 Z5.5
G1 Z3.0
G1 X128.0 Y192.0
G1 Z5.5
G0 X128.0 Y192.5 Z5.5
G1 Z3.0
G1 X195.5 Y192.5
G1 Z5.5
G0 X195.0 Y193.0 Z5.5
G1 Z3.0
G1 X128.0 Y193.0
G1 Z5.5
G0 X128.5 Y193.5 Z5.5
G1 Z3.0
G1 X195.0 Y193.5
G1 Z5.5
G0 X194.5 Y194.0 Z5.5
G1 Z3.0
G1 X128.5 Y194.0
G1 Z5.5
G0 X129.0 Y194.5 Z5.5
G1 Z3.0
G1 X194.0 Y194.5
G1 Z5.5
G0 X194.0 Y195.0 Z5.5
G1 Z3.0
G1 X129.0 Y195.0
G1 Z5.5
G0 X129.5 Y195.5 Z5.5
G1 Z3.0
G1 X193.5 Y195.5
G1 Z5.5
G0 X193.5 Y196.0 Z5.5
G1 Z3.0
G1 X130.0 Y196.0
G1 Z5.5
G0 X130.0 Y196.5 Z5.5
G1 Z3.0
G1 X193.0 Y196.5
G1 Z5.5
G0 X175.0 Y197.0 Z5.5
G1 Z3.0
G1 X130.5 Y197.0
G1 Z5.5
G0 X177.0 Y197.0 Z5.5
G1 Z3.0
G1 X193.0 Y197.0
G1 Z5.5
G0 X175.0 Y197.5 Z5.5
G1 Z3.0
G1 X131.0 Y197.5
G1 Z5.5
G0 X178.0 Y197.5 Z5.5
G1 Z3.0
G1 X192.5 Y197.5
G1 Z5.5
G0 X174.5 Y198.0 Z5.5
G1 Z3.0
G1 X131.0 Y198.0
G1 Z5.5
G0 X178.5 Y198.0 Z5.5
G1 Z3.0
G1 X192.5 Y198.0
G1 Z5.5
G0 X174.0 Y198.5 Z5.5
G1 Z3.0
G1 X131.5 Y198.5
G1 Z5.5
G0 X179.0 Y198.5 Z5.5
G1 Z3.0
G1 X192.0 Y198.5
G1 Z5.5
G0 X173.5 Y199.0 Z5.5
G1 Z3.0
G1 X132.0 Y199.0
G1 Z5.5
G0 X179.5 Y199.0 Z5.5
G1 Z3.0
G1 X192.0 Y199.0
G1 Z5.5
G0 X173.0 Y199.5 Z5.5
G1 Z3.0
G1 X133.0 Y199.5
G1 Z5.5
G0 X180.0 Y199.5 Z5.5
G1 Z3.0
G1 X192.0 Y199.5
G1 Z5.5
G0 X172.5 Y200.0 Z5.5
G1 Z3.0
G1 X133.5 Y200.0
G1 Z5.5
G0 X180.5 Y200.0 Z5.5
G1 Z3.0
G1 X191.5 Y200.0
G1 Z5.5
G0 X171.5 Y200.5 Z5.5
G1 Z3.0
G1 X134.0 Y200.5
G1 Z5.5
G0 X181.5 Y200.5 Z5.5
G1 Z3.0
G1 X191.5 Y200.5
G1 Z5.5
G0 X171.0 Y201.0 Z5.5
G1 Z3.0
G1 X135.0 Y201.0
G1 Z5.5
G0 X182.0 Y201.0 Z5.5
G1 Z3.0
G1 X191.5 Y201.0
G1 Z5.5
G0 X170.5 Y201.5 Z5.5
G1 Z3.0
G1 X135.5 Y201.5
G1 Z5.5
G0 X182.5 Y201.5 Z5.5
G1 Z3.0
G1 X191.5 Y201.5
G1 Z5.5
G0 X169.5 Y202.0 Z5.5
G1 Z3.0
G1 X136.5 Y202.0
G1 Z5.5
G0 X183.0 Y202.0 Z5.5
G1 Z3.0
G1 X191.0 Y202.0
G1 Z5.5
G0 X169.0 Y202.5 Z5.5
G1 Z3.0
G1 X138.0 Y202.5
G1 Z5.5
G0 X183.5 Y202.5 Z5.5
G1 Z3.0
G1 X191.0 Y202.5
G1 Z5.5
G0 X167.5 Y203.0 Z5.5
G1 Z3.0
G1 X139.5 Y203.0
G1 Z5.5
G0 X184.0 Y203.0 Z5.5
G1 Z3.0
G1 X191.0 Y203.0
G1 Z5.5
G0 X166.5 Y203.5 Z5.5
G1 Z3.0
G1 X143.0 Y203.5
G1 Z5.5
G0 X185.0 Y203.5 Z5.5
G1 Z3.0
G1 X191.0 Y203.5
G1 Z5.5
G0 X164.5 Y204.0 Z5.5
G1 Z3.0
G1 X150.0 Y204.0
G1 Z5.5
G0 X185.5 Y204.0 Z5.5
G1 Z3.0
G1 X191.0 Y204.0
G1 Z5.5
G0 X162.0 Y204.5 Z5.5
G1 Z3.0
G1 X156.0 Y204.5
G1 Z5.5
G0 X186.0 Y204.5 Z5.5
G1 Z3.0
G1 X191.0 Y204.5
G1 Z5.5
G0 X191.0 Y205.0 Z5.5
G1 Z3.0
G1 X187.0 Y205.0
G1 Z5.5
G0 X187.5 Y205.5 Z5.5
G1 Z3.0
G1 X191.0 Y205.5
G1 Z5.5
G0 X190.5 Y206.0 Z5.5
G1 Z3.0
G1 X188.5 Y206.0
G1 Z5.5
G0 X189.0 Y206.5 Z5.5
G1 Z3.0
G1 X190.5 Y206.5
G1 Z5.5
G1 Z20G1 X0 Y200 F3000    ; home X axis
G1 Y0 F3000         ; home Y axis

M84                 ; disable motors
